…
``` r
gc.his.gr %>% as.data.frame %>% group_by(gene.type) %>% summarize(nb.genes.his=n())
```

    ## # A tibble: 27 x 2
    ##    gene.type                nb.genes.his
    ##    <chr>                           <int>
    ##  1 3prime_overlapping_ncrna            7
    ##  2 antisense                        2389
    ##  3 IG_C_gene                           4
    ##  4 IG_C_pseudogene                     1
    ##  5 IG_D_gene                           7
    ##  6 IG_J_gene                           9
    ##  7 IG_J_pseudogene                     2
    ##  8 IG_V_gene                          16
    ##  9 IG_V_pseudogene                    16
    ## 10 lincRNA                          1898
    ## # ... with 17 more rows
…
``` r
ol %>% as.data.frame %>% mutate(gene.type=gc.gr$gene.type[queryHits]) %>% group_by(gene.type) %>% summarize(nb.genes.his=n())
```

    ## # A tibble: 27 x 2
    ##    gene.type                nb.genes.his
    ##    <chr>                           <int>
    ##  1 3prime_overlapping_ncrna            8
    ##  2 antisense                        4112
    ##  3 IG_C_gene                           5
    ##  4 IG_C_pseudogene                     1
    ##  5 IG_D_gene                           7
    ##  6 IG_J_gene                           9
    ##  7 IG_J_pseudogene                     2
    ##  8 IG_V_gene                          16
    ##  9 IG_V_pseudogene                    16
    ## 10 lincRNA                          3369
    ## # ... with 17 more rows
…
